{
    "count": 2243242,
    "next": "http://legacy-api.kexp.org/play/?limit=20&offset=20",
    "previous": null,
    "results": [
                {
                "playid": 2308329,
                "playtype": {
                "playtypeid": 1,
                "name": "Media play"
                },
                "airdate": "2017-02-02T04:41:51Z",
                "artist": {
                "artistid": 176684,
                "name": "Sandy Harless",
                "islocal": false
                },
                "release": {
                "releaseid": 272050,
                "name": "Wayfaring Strangers: Cosmic American Music",
                "largeimageuri": null,
                "smallimageuri": null
                },
                "releaseevent": {
                "releaseeventid": 336269,
                "year": 2016
                },
                "track": {
                "trackid": 1105703,
                "name": "I Knew Her Well"
                },
                "label": {
                "labelid": 566,
                "name": "Numero Group"
                },
                "comments": [
                             {
                             "commentid": 949062,
                             "text": "One more from this terrific comp ; more about it on the blog: http://www.americanstandardtime.com/4825-2/"
                             }
                             ]
                },
                {
                "playid": 2308328,
                "playtype": {
                "playtypeid": 1,
                "name": "Media play"
                },
                "airdate": "2017-02-02T04:38:27Z",
                "artist": {
                "artistid": 184671,
                "name": "Kathy Heideman",
                "islocal": false
                },
                "release": {
                "releaseid": 294046,
                "name": "Wayfaring Strangers: Cosmic American Music",
                "largeimageuri": null,
                "smallimageuri": null
                },
                "releaseevent": {
                "releaseeventid": 359584,
                "year": 2016
                },
                "track": {
                "trackid": 1139572,
                "name": "Sleep a Million Years"
                },
                "label": {
                "labelid": 566,
                "name": "Numero Group"
                },
                "comments": [
                             {
                             "commentid": 949061,
                             "text": "Originally from her 1976 album, \"Move With Love\": http://www.aquariumdrunkard.com/2013/11/07/vetiver-kathy-heideman-sleep-a-million-years/"
                             }
                             ]
                },
                {
                "playid": 2308327,
                "playtype": {
                "playtypeid": 1,
                "name": "Media play"
                },
                "airdate": "2017-02-02T04:34:04Z",
                "artist": {
                "artistid": 176683,
                "name": "Mistress Mary",
                "islocal": false
                },
                "release": {
                "releaseid": 272049,
                "name": "Wayfaring Strangers: Cosmic American Music",
                "largeimageuri": null,
                "smallimageuri": null
                },
                "releaseevent": {
                "releaseeventid": 336268,
                "year": 2016
                },
                "track": {
                "trackid": 1105702,
                "name": "And I Didn't Want You"
                },
                "label": {
                "labelid": 566,
                "name": "Numero Group"
                },
                "comments": [
                             {
                             "commentid": 949060,
                             "text": "From Numero Group's \"Cosmic American Music\": http://www.numerogroup.com/products/wayfaring-strangers-cosmic-american-music ; this tune was originally found on Mistress Mary's 1969 album \"Housewife\""
                             }
                             ]
                },
                {
                "playid": 2308326,
                "playtype": {
                "playtypeid": 1,
                "name": "Media play"
                },
                "airdate": "2017-02-02T04:30:45Z",
                "artist": {
                "artistid": 171428,
                "name": "The City",
                "islocal": false
                },
                "release": {
                "releaseid": 264500,
                "name": "Now That Everything’s Been Said",
                "largeimageuri": "http://ecx.images-amazon.com/images/I/61sh713CBtL.jpg",
                "smallimageuri": "http://ecx.images-amazon.com/images/I/61sh713CBtL._SL75_.jpg"
                },
                "releaseevent": {
                "releaseeventid": 328447,
                "year": 1968
                },
                "track": {
                "trackid": 1095304,
                "name": "That Old Sweet Roll (Hi-De-Ho)"
                },
                "label": {
                "labelid": 2571,
                "name": "Ode Records"
                },
                "comments": [
                             {
                             "commentid": 949059,
                             "text": "Carole King's band in 1968 with bassist (and future husband) Charles Larkey and guitarist Danny Kortchmar ; reissue of the 1968 album: http://lightintheattic.net/releases/1909-now-that-everything-s-been-said"
                             }
                             ]
                },
                {
                "playid": 2308325,
                "playtype": {
                "playtypeid": 1,
                "name": "Media play"
                },
                "airdate": "2017-02-02T04:26:56Z",
                "artist": {
                "artistid": 8206,
                "name": "Jackie DeShannon",
                "islocal": false
                },
                "release": {
                "releaseid": 241372,
                "name": "Laurel Canyon",
                "largeimageuri": "http://ecx.images-amazon.com/images/I/51nD-OokW1L.jpg",
                "smallimageuri": "http://ecx.images-amazon.com/images/I/51nD-OokW1L._SL75_.jpg"
                },
                "releaseevent": {
                "releaseeventid": 303605,
                "year": 1968
                },
                "track": {
                "trackid": 1050495,
                "name": "Laurel Canyon"
                },
                "label": {
                "labelid": 4226,
                "name": "Imperial"
                },
                "comments": [
                             {
                             "commentid": 949058,
                             "text": "Started her singing career at age 6; at 13 she had her own radio show; went on to perform, tour, and write with all kinds of music legends ; inducted into the Songwriter's Hall of Fame in 2010: http://www.npr.org/templates/story/story.php?storyId=127541549 ; http://www.jackiedeshannon.com"
                             }
                             ]
                },
                {
                "playid": 2308324,
                "playtype": {
                "playtypeid": 1,
                "name": "Media play"
                },
                "airdate": "2017-02-02T04:22:47Z",
                "artist": {
                "artistid": 2470,
                "name": "Karen Dalton",
                "islocal": false
                },
                "release": {
                "releaseid": 2037,
                "name": "In My Own Time",
                "largeimageuri": "http://ecx.images-amazon.com/images/I/51Zw5ZQl22L.jpg",
                "smallimageuri": "http://ecx.images-amazon.com/images/I/51Zw5ZQl22L._SL75_.jpg"
                },
                "releaseevent": {
                "releaseeventid": 2714,
                "year": 2006
                },
                "track": {
                "trackid": 18379,
                "name": "In My Own Dream"
                },
                "label": {
                "labelid": 382,
                "name": "Light in the Attic Records"
                },
                "comments": [
                             {
                             "commentid": 949057,
                             "text": "Paul Butterfield tune ; reissue of the 1971 album ; http://lightintheattic.net/artists/5-karen-dalton/bio ; 1970 vidoe for \"Blues Jumped the Rabbit\": https://www.youtube.com/watch?v=2oRJyffGdIY"
                             }
                             ]
                },
                {
                "playid": 2308323,
                "playtype": {
                "playtypeid": 1,
                "name": "Media play"
                },
                "airdate": "2017-02-02T04:19:00Z",
                "artist": {
                "artistid": 6335,
                "name": "Dillard & Clark",
                "islocal": false
                },
                "release": {
                "releaseid": 276570,
                "name": "Through the Morning, Through the Night",
                "largeimageuri": "http://ecx.images-amazon.com/images/I/21R6R72G95L.jpg",
                "smallimageuri": "http://ecx.images-amazon.com/images/I/21R6R72G95L._SL75_.jpg"
                },
                "releaseevent": {
                "releaseeventid": 341018,
                "year": 1969
                },
                "track": {
                "trackid": 1112988,
                "name": "Don't Let Me Down"
                },
                "label": {
                "labelid": 33418,
                "name": "A&M"
                },
                "comments": [
                             {
                             "commentid": 949056,
                             "text": "Gene Clark of the Byrds and banjo player Doug Dillard with their version of the Beatles tune ; 1969 review of the album, their second and last together: http://www.thecrimson.com/article/1969/11/17/through-the-morning-through-the-night/"
                             }
                             ]
                },
                {
                "playid": 2308322,
                "playtype": {
                "playtypeid": 4,
                "name": "Air break"
                },
                "airdate": "2017-02-02T04:16:34Z",
                "artist": null,
                "release": null,
                "releaseevent": null,
                "track": null,
                "label": null,
                "comments": []
                },
                {
                "playid": 2308321,
                "playtype": {
                "playtypeid": 1,
                "name": "Media play"
                },
                "airdate": "2017-02-02T04:11:59Z",
                "artist": {
                "artistid": 5178,
                "name": "Bonnie Raitt",
                "islocal": false
                },
                "release": {
                "releaseid": 294045,
                "name": "Takin' My Time",
                "largeimageuri": null,
                "smallimageuri": null
                },
                "releaseevent": {
                "releaseeventid": 359583,
                "year": 1973
                },
                "track": {
                "trackid": 1139571,
                "name": "I Feel the Same"
                },
                "label": {
                "labelid": 43960,
                "name": "Warner Bros"
                },
                "comments": [
                             {
                             "commentid": 949055,
                             "text": "Chris Smither tune, from her third album ; last year, Ms. Raitt released her first album of new material in over a decade: http://www.rollingstone.com/music/news/how-bonnie-raitt-overcame-loss-for-her-first-lp-of-new-songs-in-a-decade-20160226 ; http://www.bonnieraitt.com/ ; https://www.facebook.com/officialbonnieraitt/"
                             }
                             ]
                },
                {
                "playid": 2308320,
                "playtype": {
                "playtypeid": 1,
                "name": "Media play"
                },
                "airdate": "2017-02-02T04:03:33Z",
                "artist": {
                "artistid": 181462,
                "name": "Daniel Norgren",
                "islocal": false
                },
                "release": {
                "releaseid": 279037,
                "name": "Buck",
                "largeimageuri": "http://ecx.images-amazon.com/images/I/51njX4v3IEL.jpg",
                "smallimageuri": "http://ecx.images-amazon.com/images/I/51njX4v3IEL._SL75_.jpg"
                },
                "releaseevent": {
                "releaseeventid": 343678,
                "year": 2013
                },
                "track": {
                "trackid": 1121159,
                "name": "Moonshine Got Me"
                },
                "label": {
                "labelid": 71040,
                "name": "Superpuma"
                },
                "comments": [
                             {
                             "commentid": 949054,
                             "text": "This song live in Denmark in 2011: https://www.youtube.com/watch?v=olKZoHYobhs ; http://www.superpumarecords.com/about.html#nav_danielnorgren"
                             }
                             ]
                },
                {
                "playid": 2308319,
                "playtype": {
                "playtypeid": 1,
                "name": "Media play"
                },
                "airdate": "2017-02-02T03:59:09Z",
                "artist": {
                "artistid": 173102,
                "name": "Rayland Baxter",
                "islocal": false
                },
                "release": {
                "releaseid": 267894,
                "name": "Imaginary Man",
                "largeimageuri": "http://ecx.images-amazon.com/images/I/41RqBj9%2BLxL.jpg",
                "smallimageuri": "http://ecx.images-amazon.com/images/I/41RqBj9%2BLxL._SL75_.jpg"
                },
                "releaseevent": {
                "releaseeventid": 331999,
                "year": 2015
                },
                "track": {
                "trackid": 1100146,
                "name": "Memories of Old Hickory"
                },
                "label": {
                "labelid": 34957,
                "name": "ATO"
                },
                "comments": [
                             {
                             "commentid": 949053,
                             "text": "Second album from the Nashville artist ; session video from another song on this album, \"Yellow Eyes\": https://www.youtube.com/watch?v=jv3cMveVgYo ; http://www.raylandbaxter.com ; https://www.facebook.com/RaylandBaxterMusic"
                             }
                             ]
                },
                {
                "playid": 2308318,
                "playtype": {
                "playtypeid": 1,
                "name": "Media play"
                },
                "airdate": "2017-02-02T03:53:17Z",
                "artist": {
                "artistid": 131505,
                "name": "Hiss Golden Messenger",
                "islocal": false
                },
                "release": {
                "releaseid": 283689,
                "name": "Heart Like a Levee",
                "largeimageuri": "http://ecx.images-amazon.com/images/I/517-uDTjxfL.jpg",
                "smallimageuri": "http://ecx.images-amazon.com/images/I/517-uDTjxfL._SL75_.jpg"
                },
                "releaseevent": {
                "releaseeventid": 348480,
                "year": 2016
                },
                "track": {
                "trackid": 1123180,
                "name": "Highland Grace"
                },
                "label": {
                "labelid": 5139,
                "name": "Merge"
                },
                "comments": [
                             {
                             "commentid": 949052,
                             "text": "Video live at Pickathon in 2014: http://blog.kexp.org/2014/09/09/live-video-hiss-golden-messenger-at-pickathon/ ; recent New Yorker interview: http://www.newyorker.com/culture/culture-desk/lost-in-america-with-hiss-golden-messenger ; https://www.facebook.com/HissGoldenMessenger ; http://www.hissgoldenmessenger.com"
                             }
                             ]
                },
                {
                "playid": 2308317,
                "playtype": {
                "playtypeid": 4,
                "name": "Air break"
                },
                "airdate": "2017-02-02T03:49:46Z",
                "artist": null,
                "release": null,
                "releaseevent": null,
                "track": null,
                "label": null,
                "comments": []
                },
                {
                "playid": 2308316,
                "playtype": {
                "playtypeid": 1,
                "name": "Media play"
                },
                "airdate": "2017-02-02T03:46:34Z",
                "artist": {
                "artistid": 189994,
                "name": "Al James & Jon Neufeld",
                "islocal": false
                },
                "release": {
                "releaseid": 294044,
                "name": "Roll Columbia: Woody Guthrie’s 26 Northwest Songs",
                "largeimageuri": null,
                "smallimageuri": null
                },
                "releaseevent": {
                "releaseeventid": 359582,
                "year": 2017
                },
                "track": {
                "trackid": 1139570,
                "name": "The Talkin' Blues"
                },
                "label": {
                "labelid": 41511,
                "name": "Smithsonian Folkways"
                },
                "comments": [
                             {
                             "commentid": 949051,
                             "text": "Jon produced this brand new album of covers by PNW artists of Woody Guthrie's 26 songs written for the BPA about the Northwest, the first complete collection of all 26 songs, 9 of which Woody never even recorded himself: http://www.folkways.si.edu/roll-columbia-woody-guthrie-s-26-northwest-songs/american-folk/music/album/smithsonian ; Al and Jon are from Portland's Delorean: http://doloreanmusic.com/"
                             }
                             ]
                },
                {
                "playid": 2308315,
                "playtype": {
                "playtypeid": 1,
                "name": "Media play"
                },
                "airdate": "2017-02-02T03:42:54Z",
                "artist": {
                "artistid": 181464,
                "name": "Birger Olsen",
                "islocal": false
                },
                "release": {
                "releaseid": 279043,
                "name": "The Lights Just Buzz",
                "largeimageuri": "http://ecx.images-amazon.com/images/I/61Ooi7NjyML.jpg",
                "smallimageuri": "http://ecx.images-amazon.com/images/I/61Ooi7NjyML._SL75_.jpg"
                },
                "releaseevent": {
                "releaseeventid": 343685,
                "year": 2016
                },
                "track": {
                "trackid": 1118561,
                "name": "And The Telephone Dangles On The Line"
                },
                "label": {
                "labelid": 54427,
                "name": "Mama Bird"
                },
                "comments": [
                             {
                             "commentid": 949050,
                             "text": "Solo from the singer from Portland supergroup Denver ; http://tunes.mamabirdrecordingco.com/album/the-lights-just-buzz ; https://www.facebook.com/DenverTheBand"
                             }
                             ]
                },
                {
                "playid": 2308314,
                "playtype": {
                "playtypeid": 1,
                "name": "Media play"
                },
                "airdate": "2017-02-02T03:37:33Z",
                "artist": {
                "artistid": 181462,
                "name": "Daniel Norgren",
                "islocal": false
                },
                "release": {
                "releaseid": 279037,
                "name": "Buck",
                "largeimageuri": "http://ecx.images-amazon.com/images/I/51njX4v3IEL.jpg",
                "smallimageuri": "http://ecx.images-amazon.com/images/I/51njX4v3IEL._SL75_.jpg"
                },
                "releaseevent": {
                "releaseeventid": 343678,
                "year": 2013
                },
                "track": {
                "trackid": 1120049,
                "name": "Music Tape"
                },
                "label": {
                "labelid": 71040,
                "name": "Superpuma"
                },
                "comments": [
                             {
                             "commentid": 949048,
                             "text": "Recorded this album near Louisville, Kentucky, with guests like Will Oldham (singing harmony on \"Stay on My Shore\") and Nathan Salsburg (guitar on this song, and toured with her) ; doing some dates with Wilco next month, and with Richard Thompson later this spring ; https://joanshelley.bandcamp.com/album/over-and-even ; http://joanshelley.net"
                             },
                             {
                             "commentid": 949049,
                             "text": "Swedish artist, and The Roadhouse's favorite discovery from Pickathon 2016 ; live video of \"Whatever Turns You On\" in 2012: https://www.youtube.com/watch?v=gAWiQDHC_qo ; https://www.facebook.com/Daniel-Norgren-54884290308/ ; http://www.superpumarecords.com/about.html#nav_danielnorgren"
                             }
                             ]
                },
                {
                "playid": 2308313,
                "playtype": {
                "playtypeid": 1,
                "name": "Media play"
                },
                "airdate": "2017-02-02T03:33:27Z",
                "artist": {
                "artistid": 167195,
                "name": "Joan Shelley",
                "islocal": false
                },
                "release": {
                "releaseid": 259207,
                "name": "Over And Even",
                "largeimageuri": "http://ecx.images-amazon.com/images/I/61kyigr6VRL.jpg",
                "smallimageuri": "http://ecx.images-amazon.com/images/I/61kyigr6VRL._SL75_.jpg"
                },
                "releaseevent": {
                "releaseeventid": 322500,
                "year": 2015
                },
                "track": {
                "trackid": 1121702,
                "name": "Over And Even"
                },
                "label": {
                "labelid": 45170,
                "name": "No Quarter"
                },
                "comments": [
                             {
                             "commentid": 949047,
                             "text": "Recorded this album near Louisville, Kentucky, with guests like Will Oldham (singing harmony on \"Stay on My Shore\") and Nathan Salsburg (guitar on this song, and toured with her) ; doing some dates with Wilco next month, and with Richard Thompson later this spring ; https://joanshelley.bandcamp.com/album/over-and-even ; http://joanshelley.net"
                             }
                             ]
                },
                {
                "playid": 2308312,
                "playtype": {
                "playtypeid": 4,
                "name": "Air break"
                },
                "airdate": "2017-02-02T03:30:09Z",
                "artist": null,
                "release": null,
                "releaseevent": null,
                "track": null,
                "label": null,
                "comments": []
                },
                {
                "playid": 2308311,
                "playtype": {
                "playtypeid": 1,
                "name": "Media play"
                },
                "airdate": "2017-02-02T03:26:42Z",
                "artist": {
                "artistid": 172670,
                "name": "Luther Dickinson",
                "islocal": false
                },
                "release": {
                "releaseid": 267009,
                "name": "A Folksinger's Songbook: Volumes I & II",
                "largeimageuri": "http://ecx.images-amazon.com/images/I/51nObvIS8EL.jpg",
                "smallimageuri": "http://ecx.images-amazon.com/images/I/51nObvIS8EL._SL75_.jpg"
                },
                "releaseevent": {
                "releaseeventid": 330998,
                "year": 2016
                },
                "track": {
                "trackid": 1117015,
                "name": "Up Over Yonder (feat. JJ Grey)"
                },
                "label": {
                "labelid": 31863,
                "name": "New West"
                },
                "comments": [
                             {
                             "commentid": 949046,
                             "text": "Formed the North Mississippi All Stars with his brother Cody in 1996 ; his dad was Memphis musician and record producer Jim Dickinson ; this song live: https://www.youtube.com/watch?v=PARQuMWGWnM ; http://www.lutherdickinson.com"
                             }
                             ]
                },
                {
                "playid": 2308310,
                "playtype": {
                "playtypeid": 1,
                "name": "Media play"
                },
                "airdate": "2017-02-02T03:23:10Z",
                "artist": {
                "artistid": 162070,
                "name": "Jake Xerxes Fussell",
                "islocal": false
                },
                "release": {
                "releaseid": 249553,
                "name": "Jake Xerxes Fussell",
                "largeimageuri": "http://ecx.images-amazon.com/images/I/61IvIJm9PPL.jpg",
                "smallimageuri": "http://ecx.images-amazon.com/images/I/61IvIJm9PPL._SL75_.jpg"
                },
                "releaseevent": {
                "releaseeventid": 312021,
                "year": 2015
                },
                "track": {
                "trackid": 1124312,
                "name": "Boat's Up the River"
                },
                "label": {
                "labelid": 47254,
                "name": "Paradise of Bachelors"
                },
                "comments": [
                             {
                             "commentid": 949045,
                             "text": "New album coming out in March: http://www.npr.org/2017/01/18/510405388/songs-we-love-jake-xerxes-fussell-have-you-ever-seen-peaches ; https://www.facebook.com/jakexerxesfussell"
                             }
                             ]
                }
                ]
}
